[gd_scene load_steps=4 format=2]

[ext_resource path="res://Assets/SCML/3/WEAPON.png" type="Texture" id=1]
[ext_resource path="res://Scenes/Boss/FirstBoss/Script/BulletHell.gd" type="Script" id=2]

[sub_resource type="RectangleShape2D" id=1]
extents = Vector2( 41.3905, 93.4966 )

[node name="BulletHell" type="Area2D"]
script = ExtResource( 2 )

[node name="CollisionShape2D" type="CollisionShape2D" parent="."]
shape = SubResource( 1 )

[node name="Sprite" type="Sprite" parent="."]
scale = Vector2( 0.339288, 0.484322 )
texture = ExtResource( 1 )
[connection signal="body_entered" from="." to="." method="_on_BulletHell_body_entered"]
