[gd_scene load_steps=4 format=2]

[ext_resource path="res://Scenes/Boss/FirstBoss/Script/Laser.gd" type="Script" id=1]
[ext_resource path="res://Assets/pngkit_blue-laser-beam-png_4014905.png" type="Texture" id=2]

[sub_resource type="RectangleShape2D" id=1]
extents = Vector2( 81.0848, 36.663 )

[node name="Laser" type="Area2D"]
script = ExtResource( 1 )

[node name="Sprite" type="Sprite" parent="."]
position = Vector2( 1.41421, 0 )
scale = Vector2( 0.0812681, 0.173819 )
texture = ExtResource( 2 )
flip_h = true

[node name="CollisionShape2D" type="CollisionShape2D" parent="."]
shape = SubResource( 1 )
[connection signal="body_entered" from="." to="." method="_on_Area2D_body_entered"]
[connection signal="body_entered" from="." to="." method="_on_Laser_body_entered"]
